…
``` r
terremotos <- readr::read_csv("https://raw.githubusercontent.com/cienciadedatos/datos-de-miercoles/master/datos/2019/2019-05-29/terremotos.csv")

terremotos <- terremotos %>%   filter( tipo == "terremoto" ) %>% 
  mutate(energia =10^(11.8 + 1.5 *magnitud) )

# Verificando el dia del terremoto
terremotos %>% filter(fecha == "2010-02-27") %>%  arrange(desc(magnitud)) #8.8
```

    ## # A tibble: 39 x 8
    ##    fecha      hora   latitud longitud tipo     profundidad magnitud energia
    ##    <date>     <drtn>   <dbl>    <dbl> <chr>          <dbl>    <dbl>   <dbl>
    ##  1 2010-02-27 06:34    -36.1    -72.9 terremo~        22.9      8.8 1.00e25
    ##  2 2010-02-27 08:01    -37.8    -75.0 terremo~        35        7.4 7.94e22
    ##  3 2010-02-27 15:45    -24.9    -65.6 terremo~        10        6.3 1.78e21
    ##  4 2010-02-27 06:52    -34.9    -72.6 terremo~        35        6.2 1.26e21
    ##  5 2010-02-27 19:00    -33.4    -71.8 terremo~        31.1      6.2 1.26e21
    ##  6 2010-02-27 08:25    -34.7    -72.4 terremo~        35        6.1 8.91e20
    ##  7 2010-02-27 17:24    -36.4    -73.2 terremo~        19        6.1 8.91e20
    ##  8 2010-02-27 06:51    -31.7    -69.1 terremo~        39.8      6   6.31e20
    ##  9 2010-02-27 07:12    -33.9    -71.9 terremo~        35        6   6.31e20
    ## 10 2010-02-27 07:37    -36.9    -72.7 terremo~        35        6   6.31e20
    ## # ... with 29 more rows
…
